{
  "devToolsPort": 19002,
  "expoServerPort": 19000,
  "packagerPort": 19001,
  "packagerPid": 9030,
  "expoServerNgrokUrl": null,
  "packagerNgrokUrl": null,
  "ngrokPid": null,
  "webpackServerPort": null
}
